{
    "db": {
        "name": "Database manager",
        "version": 1,
        "enabled": true
    },
    "social": {
        "name": "Social Media Links",
        "version": 1,
        "enabled": true
    },
    "shorturl": {
        "name": "ShortURL manager",
        "version": 1,
        "enabled": true
    }
}