{
    "blog": {
        "name": "Nevexo's Blog",
        "url": "https://blog.nevexo.space",
        "fa_icon": "fas fa-book",
        "friendly_name": "Blog"
    },
    "twitter": {
        "name": "@_nevexo_",
        "url": "https://twitter.com/_nevexo_",
        "fa_icon": "fab fa-twitter",
        "friendly_name": "Twitter"
    },
    "linkedin": {
        "name": "Nevexo",
        "url": "https://www.linkedin.com/in/nevexo",
        "fa_icon": "fab fa-linkedin",
        "friendly_name": "LinkedIn"
    },
    "discord": {
        "name": "Nevexo#8046",
        "fa_icon": "fab fa-discord",
        "url": "https://discord.gg/w5zbv7W",
        "friendly_name": "Discord",
        "hidden": true
    },
    "vm": {
        "name": "Nevexo",
        "url": "https://virtual-market.org/members/nevexo.141/",
        "hidden": true,
        "friendly_name": "Virtual Market"        
    },
    "web": {
        "name": "nevexo.space",
        "url": "https://nevexo.space",
        "hidden": true,
        "friendly_name": "Website"
    },
    "gitlab": {
        "name": "Nevexo",
        "url": "https://gitlab.com/nevexo",
        "fa_icon": "fab fa-gitlab",
        "friendly_name": "GitLab"
    },
    "github": {
        "name": "Nevexo",
        "url": "https://github.com/nevexo",
        "fa_icon": "fab fa-github",
        "friendly_name": "GitHub"
    },
    "keybase": {
        "name": "Nevexo",
        "url": "https://keybase.io/nevexo",
        "fa_icon": "fab fa-keybase",
        "friendly_name": "Keybase"
    },
    "wakatime": {
        "name": "Nevexo",
        "url": "https://wakatime.com/@Nevexo",
        "fa_icon": "fas fa-clock",
        "friendly_name": "Wakatime"
    },
    "dotfiles": {
        "name": "dotfiles",
        "url": "https://github.com/nevexo/dotfiles",
        "friendly_name": "Dotfiles",
        "hidden": true
    },
    "tagline": "Still haven't decided what to write here",
    "full_name": "Cameron Fleming"
}